{"componentChunkName":"component---node-modules-pitayan-gatsby-theme-pitayan-src-templates-category-posts-index-tsx","path":"/categories/post/2/","result":{"data":{"allMdx":{"totalCount":9,"pageInfo":{"currentPage":2,"hasNextPage":false,"hasPreviousPage":true,"pageCount":2},"nodes":[{"id":"ea9bde7f-a469-5f6f-b5ab-b62d517d2e36","timeToRead":2.225,"fields":{"slug":"/posts/import-custom-components"},"frontmatter":{"title":"Use custom components in the post","categories":["component","post"],"date":"April 1st, 2022","hero":{"normal":{"gatsbyImageData":{"layout":"constrained","placeholder":{"fallback":"data:image/jpeg;base64,/9j/2wBDABALDA4MChAODQ4SERATGCgaGBYWGDEjJR0oOjM9PDkzODdASFxOQERXRTc4UG1RV19iZ2hnPk1xeXBkeFxlZ2P/2wBDARESEhgVGC8aGi9jQjhCY2NjY2NjY2NjY2NjY2NjY2NjY2NjY2NjY2NjY2NjY2NjY2NjY2NjY2NjY2NjY2NjY2P/wgARCAAQABQDASIAAhEBAxEB/8QAFwAAAwEAAAAAAAAAAAAAAAAAAAEEAv/EABYBAQEBAAAAAAAAAAAAAAAAAAIBA//aAAwDAQACEAMQAAABgVGllGMU/8QAGRAAAgMBAAAAAAAAAAAAAAAAAQIAERIh/9oACAEBAAEFAnfJU2sYAihlm7//xAAZEQACAwEAAAAAAAAAAAAAAAAAAhESEzH/2gAIAQMBAT8BweOFWP/EABkRAAIDAQAAAAAAAAAAAAAAAAARAQITMf/aAAgBAgEBPwHSr6OD/8QAGRAAAgMBAAAAAAAAAAAAAAAAAAEQETEy/9oACAEBAAY/AkXG2dGo/8QAGBABAQEBAQAAAAAAAAAAAAAAAQARITH/2gAIAQEAAT8h8Joljr1l7BNCsxyQGNr/2gAMAwEAAgADAAAAEBDP/8QAGBEAAwEBAAAAAAAAAAAAAAAAAAERIXH/2gAIAQMBAT8QTVm+k8h//8QAFxEAAwEAAAAAAAAAAAAAAAAAAAERIf/aAAgBAgEBPxBq0LH/xAAcEAEAAgIDAQAAAAAAAAAAAAABABEhMUFRkXH/2gAIAQEAAT8QoSkFrsiVHJr7KtoocMCsewpFI01R5EYIcz//2Q=="},"images":{"fallback":{"src":"/static/9d2bc3a92a1ca0a3389a9a9da37fd8ea/7d4ab/demo_1.jpg","srcSet":"/static/9d2bc3a92a1ca0a3389a9a9da37fd8ea/dee26/demo_1.jpg 192w,\n/static/9d2bc3a92a1ca0a3389a9a9da37fd8ea/2bc13/demo_1.jpg 384w,\n/static/9d2bc3a92a1ca0a3389a9a9da37fd8ea/7d4ab/demo_1.jpg 768w,\n/static/9d2bc3a92a1ca0a3389a9a9da37fd8ea/12b46/demo_1.jpg 1536w","sizes":"(min-width: 768px) 768px, 100vw"},"sources":[]},"width":768,"height":603}}},"description":"Just a post page that displays demo components"}},{"id":"33068327-072d-5bbf-80c2-0c8a06dfc1d5","timeToRead":0.57,"fields":{"slug":"/posts/gatsby-plugin-options"},"frontmatter":{"title":"The gatsby plugin options","categories":["sample","post"],"date":"March 31st, 2022","hero":{"normal":{"gatsbyImageData":{"layout":"constrained","placeholder":{"fallback":"data:image/jpeg;base64,/9j/2wBDABALDA4MChAODQ4SERATGCgaGBYWGDEjJR0oOjM9PDkzODdASFxOQERXRTc4UG1RV19iZ2hnPk1xeXBkeFxlZ2P/2wBDARESEhgVGC8aGi9jQjhCY2NjY2NjY2NjY2NjY2NjY2NjY2NjY2NjY2NjY2NjY2NjY2NjY2NjY2NjY2NjY2NjY2P/wgARCAAPABQDASIAAhEBAxEB/8QAFgABAQEAAAAAAAAAAAAAAAAABAAC/8QAFgEBAQEAAAAAAAAAAAAAAAAAAgAB/9oADAMBAAIQAxAAAAEMpGQLcV//xAAZEAADAQEBAAAAAAAAAAAAAAABAgMAEhH/2gAIAQEAAQUC5OAbEaNF5F08tQO//8QAFBEBAAAAAAAAAAAAAAAAAAAAEP/aAAgBAwEBPwE//8QAFBEBAAAAAAAAAAAAAAAAAAAAEP/aAAgBAgEBPwE//8QAGxAAAQQDAAAAAAAAAAAAAAAAAQACEXEQEkH/2gAIAQEABj8C5nVzRZRkRSlq/8QAGRAAAwEBAQAAAAAAAAAAAAAAAAERIUFh/9oACAEBAAE/IXGrDE3XIJpqLOFFU+CDkCH/2gAMAwEAAgADAAAAEJz/AP/EABYRAQEBAAAAAAAAAAAAAAAAAAEREP/aAAgBAwEBPxAI0z//xAAWEQEBAQAAAAAAAAAAAAAAAAABEQD/2gAIAQIBAT8QWkdN/8QAHBAAAwEAAgMAAAAAAAAAAAAAAREhADFBUWGB/9oACAEBAAE/EAw7QCw/eAhmXTc+ZyllVEIJKniZSWSEaF51PTFCu//Z"},"images":{"fallback":{"src":"/static/181debee0236f68b9d33f44578e89fc3/0347b/demo_1.jpg","srcSet":"/static/181debee0236f68b9d33f44578e89fc3/920c4/demo_1.jpg 192w,\n/static/181debee0236f68b9d33f44578e89fc3/ca013/demo_1.jpg 384w,\n/static/181debee0236f68b9d33f44578e89fc3/0347b/demo_1.jpg 768w,\n/static/181debee0236f68b9d33f44578e89fc3/b489f/demo_1.jpg 1536w","sizes":"(min-width: 768px) 768px, 100vw"},"sources":[]},"width":768,"height":594}}},"description":"Just a post page that displays demo components"}},{"id":"3d5d48e1-9876-50f8-a131-04615e2d862c","timeToRead":2.195,"fields":{"slug":"/posts/quick-start"},"frontmatter":{"title":"Quick start with @pitayan/gatsby-theme-pitayan plugin","categories":["sample","post"],"date":"March 30th, 2022","hero":{"normal":{"gatsbyImageData":{"layout":"constrained","placeholder":{"fallback":"data:image/jpeg;base64,/9j/2wBDABALDA4MChAODQ4SERATGCgaGBYWGDEjJR0oOjM9PDkzODdASFxOQERXRTc4UG1RV19iZ2hnPk1xeXBkeFxlZ2P/2wBDARESEhgVGC8aGi9jQjhCY2NjY2NjY2NjY2NjY2NjY2NjY2NjY2NjY2NjY2NjY2NjY2NjY2NjY2NjY2NjY2NjY2P/wgARCAAOABQDASIAAhEBAxEB/8QAFwABAQEBAAAAAAAAAAAAAAAABAADBf/EABQBAQAAAAAAAAAAAAAAAAAAAAD/2gAMAwEAAhADEAAAAR6B6ISHH//EABkQAAMBAQEAAAAAAAAAAAAAAAECAwASEf/aAAgBAQABBQKQ7ChFLQHsqGeKCm6Yb//EABQRAQAAAAAAAAAAAAAAAAAAABD/2gAIAQMBAT8BP//EABQRAQAAAAAAAAAAAAAAAAAAABD/2gAIAQIBAT8BP//EABsQAAIDAAMAAAAAAAAAAAAAAAABAhExISKB/9oACAEBAAY/AtolCd4dG6LOF6zT/8QAGxAAAgIDAQAAAAAAAAAAAAAAAREAITFBUYH/2gAIAQEAAT8hq3Tm5zKTaPkKNgeqUMPUf1HMBUBz/9oADAMBAAIAAwAAABCQz//EABQRAQAAAAAAAAAAAAAAAAAAABD/2gAIAQMBAT8QP//EABQRAQAAAAAAAAAAAAAAAAAAABD/2gAIAQIBAT8QP//EABwQAQEBAAMAAwAAAAAAAAAAAAERACExYUFxgf/aAAgBAQABPxCxJf6TMHAkRZbw+g1DkQeSmZTX0Xr091iStrVcNID4N//Z"},"images":{"fallback":{"src":"/static/d7f82421ce510232bd39970c36da2c8b/c0189/demo_1.jpg","srcSet":"/static/d7f82421ce510232bd39970c36da2c8b/76ff7/demo_1.jpg 192w,\n/static/d7f82421ce510232bd39970c36da2c8b/4e23f/demo_1.jpg 384w,\n/static/d7f82421ce510232bd39970c36da2c8b/c0189/demo_1.jpg 768w,\n/static/d7f82421ce510232bd39970c36da2c8b/d833b/demo_1.jpg 1536w","sizes":"(min-width: 768px) 768px, 100vw"},"sources":[]},"width":768,"height":553}}},"description":"Learn to know how you could start a new Gatsby blog with this plugin"}}]}},"pageContext":{"category":"post","limit":6,"skip":6,"currentPage":2}},"staticQueryHashes":["176088207"],"slicesMap":{}}