{"componentChunkName":"component---node-modules-pitayan-gatsby-theme-pitayan-src-templates-all-posts-index-tsx","path":"/posts/","result":{"data":{"allMdx":{"totalCount":10,"pageInfo":{"currentPage":1,"hasNextPage":true,"hasPreviousPage":false,"pageCount":2},"nodes":[{"id":"b62c930a-6c72-571f-8bcf-4f86ef0997ed","timeToRead":3.395,"fields":{"slug":"/health"},"frontmatter":{"title":"カーディオトレーニングの効果的な方法：HIITトレーニングについて","date":"August 5th, 2022","categories":["フィットネス","カーディオトレーニング"],"hero":{"normal":{"gatsbyImageData":{"layout":"constrained","placeholder":{"fallback":"data:image/jpeg;base64,/9j/2wBDABALDA4MChAODQ4SERATGCgaGBYWGDEjJR0oOjM9PDkzODdASFxOQERXRTc4UG1RV19iZ2hnPk1xeXBkeFxlZ2P/2wBDARESEhgVGC8aGi9jQjhCY2NjY2NjY2NjY2NjY2NjY2NjY2NjY2NjY2NjY2NjY2NjY2NjY2NjY2NjY2NjY2NjY2P/wgARCAANABQDASIAAhEBAxEB/8QAFwAAAwEAAAAAAAAAAAAAAAAAAAECA//EABYBAQEBAAAAAAAAAAAAAAAAAAABAv/aAAwDAQACEAMQAAAByd5MokT/xAAZEAADAQEBAAAAAAAAAAAAAAABAgMAEhP/2gAIAQEAAQUCSeedN5k5ZBiHYP0Qf//EABQRAQAAAAAAAAAAAAAAAAAAABD/2gAIAQMBAT8BP//EABQRAQAAAAAAAAAAAAAAAAAAABD/2gAIAQIBAT8BP//EABwQAAIBBQEAAAAAAAAAAAAAAAABIRAREiIxMv/aAAgBAQAGPwL0oOKm0mN4Gj//xAAdEAEAAwABBQAAAAAAAAAAAAABABEhQVFxgZGh/9oACAEBAAE/ITHLPZ8Q3McUR3LfaMXCukDjb5G6HHhqf//aAAwDAQACAAMAAAAQOP8A/8QAFxEAAwEAAAAAAAAAAAAAAAAAABEhAf/aAAgBAwEBPxCKiw//xAAWEQEBAQAAAAAAAAAAAAAAAAARAQD/2gAIAQIBAT8Qqszd/8QAHBABAQADAAMBAAAAAAAAAAAAAREAIUExYXGB/9oACAEBAAE/EHCRGDsMAeQSiL8MVkSbUl/N4+BBrSfJnHsAl6KXuEWChTr05//Z"},"images":{"fallback":{"src":"/static/bd6a3b1d34fa81767dd4c9547a692c51/b9482/hiit.jpg","srcSet":"/static/bd6a3b1d34fa81767dd4c9547a692c51/0f61a/hiit.jpg 192w,\n/static/bd6a3b1d34fa81767dd4c9547a692c51/c83fc/hiit.jpg 384w,\n/static/bd6a3b1d34fa81767dd4c9547a692c51/b9482/hiit.jpg 768w","sizes":"(min-width: 768px) 768px, 100vw"},"sources":[]},"width":768,"height":511}}},"description":"HIIT（ハイインテンシティ・インターバル・トレーニング）は、短時間で高い効果を発揮するトレーニング方法です。本記事では、HIITの基本的な知識から、効果的なトレーニング方法、注意点までを解説します。"}},{"id":"c6af56d3-f9eb-5c50-888a-4eb66aa5958e","timeToRead":2.575,"fields":{"slug":"/fitness/exercise/fit-ex-03"},"frontmatter":{"title":"毎日できる運動習慣の始め方","date":"August 1st, 2022","categories":["フィットネス","エクササイズ"],"hero":{"normal":{"gatsbyImageData":{"layout":"constrained","placeholder":{"fallback":"data:image/jpeg;base64,/9j/2wBDABALDA4MChAODQ4SERATGCgaGBYWGDEjJR0oOjM9PDkzODdASFxOQERXRTc4UG1RV19iZ2hnPk1xeXBkeFxlZ2P/2wBDARESEhgVGC8aGi9jQjhCY2NjY2NjY2NjY2NjY2NjY2NjY2NjY2NjY2NjY2NjY2NjY2NjY2NjY2NjY2NjY2NjY2P/wgARCAANABQDASIAAhEBAxEB/8QAFwAAAwEAAAAAAAAAAAAAAAAAAAECA//EABYBAQEBAAAAAAAAAAAAAAAAAAABAv/aAAwDAQACEAMQAAAByd5MokT/xAAZEAADAQEBAAAAAAAAAAAAAAABAgMAEhP/2gAIAQEAAQUCSeedN5k5ZBiHYP0Qf//EABQRAQAAAAAAAAAAAAAAAAAAABD/2gAIAQMBAT8BP//EABQRAQAAAAAAAAAAAAAAAAAAABD/2gAIAQIBAT8BP//EABwQAAIBBQEAAAAAAAAAAAAAAAABIRAREiIxMv/aAAgBAQAGPwL0oOKm0mN4Gj//xAAdEAEAAwABBQAAAAAAAAAAAAABABEhQVFxgZGh/9oACAEBAAE/ITHLPZ8Q3McUR3LfaMXCukDjb5G6HHhqf//aAAwDAQACAAMAAAAQOP8A/8QAFxEAAwEAAAAAAAAAAAAAAAAAABEhAf/aAAgBAwEBPxCKiw//xAAWEQEBAQAAAAAAAAAAAAAAAAARAQD/2gAIAQIBAT8Qqszd/8QAHBABAQADAAMBAAAAAAAAAAAAAREAIUExYXGB/9oACAEBAAE/EHCRGDsMAeQSiL8MVkSbUl/N4+BBrSfJnHsAl6KXuEWChTr05//Z"},"images":{"fallback":{"src":"/static/bd6a3b1d34fa81767dd4c9547a692c51/b9482/hero.jpg","srcSet":"/static/bd6a3b1d34fa81767dd4c9547a692c51/0f61a/hero.jpg 192w,\n/static/bd6a3b1d34fa81767dd4c9547a692c51/c83fc/hero.jpg 384w,\n/static/bd6a3b1d34fa81767dd4c9547a692c51/b9482/hero.jpg 768w","sizes":"(min-width: 768px) 768px, 100vw"},"sources":[]},"width":768,"height":511}}},"description":"「運動を習慣化する」ということは、健康的な身体を作るうえで非常に重要です。しかし、運動不足は多くの人が抱える課題でもあります。そこで、本記事では毎日できる運動習慣の始め方を紹介します。"}},{"id":"8c1610ff-8079-5b40-a605-4a01a46c91bf","timeToRead":3.05,"fields":{"slug":"/fitness/exercise/fit-ex-04"},"frontmatter":{"title":"ダイエットに有効な最適な有酸素運動とは？","date":"July 20th, 2022","categories":["フィットネス","エクササイズ"],"hero":{"normal":{"gatsbyImageData":{"layout":"constrained","placeholder":{"fallback":"data:image/jpeg;base64,/9j/2wBDABALDA4MChAODQ4SERATGCgaGBYWGDEjJR0oOjM9PDkzODdASFxOQERXRTc4UG1RV19iZ2hnPk1xeXBkeFxlZ2P/2wBDARESEhgVGC8aGi9jQjhCY2NjY2NjY2NjY2NjY2NjY2NjY2NjY2NjY2NjY2NjY2NjY2NjY2NjY2NjY2NjY2NjY2P/wgARCAANABQDASIAAhEBAxEB/8QAFwAAAwEAAAAAAAAAAAAAAAAAAAECA//EABYBAQEBAAAAAAAAAAAAAAAAAAABAv/aAAwDAQACEAMQAAAByd5MokT/xAAZEAADAQEBAAAAAAAAAAAAAAABAgMAEhP/2gAIAQEAAQUCSeedN5k5ZBiHYP0Qf//EABQRAQAAAAAAAAAAAAAAAAAAABD/2gAIAQMBAT8BP//EABQRAQAAAAAAAAAAAAAAAAAAABD/2gAIAQIBAT8BP//EABwQAAIBBQEAAAAAAAAAAAAAAAABIRAREiIxMv/aAAgBAQAGPwL0oOKm0mN4Gj//xAAdEAEAAwABBQAAAAAAAAAAAAABABEhQVFxgZGh/9oACAEBAAE/ITHLPZ8Q3McUR3LfaMXCukDjb5G6HHhqf//aAAwDAQACAAMAAAAQOP8A/8QAFxEAAwEAAAAAAAAAAAAAAAAAABEhAf/aAAgBAwEBPxCKiw//xAAWEQEBAQAAAAAAAAAAAAAAAAARAQD/2gAIAQIBAT8Qqszd/8QAHBABAQADAAMBAAAAAAAAAAAAAREAIUExYXGB/9oACAEBAAE/EHCRGDsMAeQSiL8MVkSbUl/N4+BBrSfJnHsAl6KXuEWChTr05//Z"},"images":{"fallback":{"src":"/static/bd6a3b1d34fa81767dd4c9547a692c51/b9482/hero.jpg","srcSet":"/static/bd6a3b1d34fa81767dd4c9547a692c51/0f61a/hero.jpg 192w,\n/static/bd6a3b1d34fa81767dd4c9547a692c51/c83fc/hero.jpg 384w,\n/static/bd6a3b1d34fa81767dd4c9547a692c51/b9482/hero.jpg 768w","sizes":"(min-width: 768px) 768px, 100vw"},"sources":[]},"width":768,"height":511}}},"description":"ダイエットに効果的な有酸素運動を紹介します。適切な強度と頻度の運動で健康的な体を手に入れよう。"}},{"id":"7e9ca1e5-b33d-5af0-a160-e425af2b11d4","timeToRead":2.8,"fields":{"slug":"/fitness/exercise/fit-ex-05"},"frontmatter":{"title":"トレーニング効果を上げる筋トレのコツ","date":"May 17th, 2022","categories":["フィットネス","エクササイズ"],"hero":{"normal":{"gatsbyImageData":{"layout":"constrained","placeholder":{"fallback":"data:image/jpeg;base64,/9j/2wBDABALDA4MChAODQ4SERATGCgaGBYWGDEjJR0oOjM9PDkzODdASFxOQERXRTc4UG1RV19iZ2hnPk1xeXBkeFxlZ2P/2wBDARESEhgVGC8aGi9jQjhCY2NjY2NjY2NjY2NjY2NjY2NjY2NjY2NjY2NjY2NjY2NjY2NjY2NjY2NjY2NjY2NjY2P/wgARCAANABQDASIAAhEBAxEB/8QAFwAAAwEAAAAAAAAAAAAAAAAAAAECA//EABYBAQEBAAAAAAAAAAAAAAAAAAABAv/aAAwDAQACEAMQAAAByd5MokT/xAAZEAADAQEBAAAAAAAAAAAAAAABAgMAEhP/2gAIAQEAAQUCSeedN5k5ZBiHYP0Qf//EABQRAQAAAAAAAAAAAAAAAAAAABD/2gAIAQMBAT8BP//EABQRAQAAAAAAAAAAAAAAAAAAABD/2gAIAQIBAT8BP//EABwQAAIBBQEAAAAAAAAAAAAAAAABIRAREiIxMv/aAAgBAQAGPwL0oOKm0mN4Gj//xAAdEAEAAwABBQAAAAAAAAAAAAABABEhQVFxgZGh/9oACAEBAAE/ITHLPZ8Q3McUR3LfaMXCukDjb5G6HHhqf//aAAwDAQACAAMAAAAQOP8A/8QAFxEAAwEAAAAAAAAAAAAAAAAAABEhAf/aAAgBAwEBPxCKiw//xAAWEQEBAQAAAAAAAAAAAAAAAAARAQD/2gAIAQIBAT8Qqszd/8QAHBABAQADAAMBAAAAAAAAAAAAAREAIUExYXGB/9oACAEBAAE/EHCRGDsMAeQSiL8MVkSbUl/N4+BBrSfJnHsAl6KXuEWChTr05//Z"},"images":{"fallback":{"src":"/static/bd6a3b1d34fa81767dd4c9547a692c51/b9482/hero.jpg","srcSet":"/static/bd6a3b1d34fa81767dd4c9547a692c51/0f61a/hero.jpg 192w,\n/static/bd6a3b1d34fa81767dd4c9547a692c51/c83fc/hero.jpg 384w,\n/static/bd6a3b1d34fa81767dd4c9547a692c51/b9482/hero.jpg 768w","sizes":"(min-width: 768px) 768px, 100vw"},"sources":[]},"width":768,"height":511}}},"description":"筋トレの効果を最大限に引き出すためには、正しい方法でトレーニングを行うことが大切です。この記事では、トレーニング効果を上げる筋トレのコツについて解説します。"}},{"id":"2fcd9d9b-38f7-53d9-87c1-6e5714f31d63","timeToRead":9.41,"fields":{"slug":"/posts/styleguide"},"frontmatter":{"title":"The Style Guide for Gatsby-theme-pitayan","date":"April 6th, 2022","categories":["styleguide","design"],"hero":{"normal":{"gatsbyImageData":{"layout":"constrained","placeholder":{"fallback":"data:image/jpeg;base64,/9j/2wBDABALDA4MChAODQ4SERATGCgaGBYWGDEjJR0oOjM9PDkzODdASFxOQERXRTc4UG1RV19iZ2hnPk1xeXBkeFxlZ2P/2wBDARESEhgVGC8aGi9jQjhCY2NjY2NjY2NjY2NjY2NjY2NjY2NjY2NjY2NjY2NjY2NjY2NjY2NjY2NjY2NjY2NjY2P/wgARCAANABQDASIAAhEBAxEB/8QAFwAAAwEAAAAAAAAAAAAAAAAAAAMFAv/EABUBAQEAAAAAAAAAAAAAAAAAAAEC/9oADAMBAAIQAxAAAAGpmdSleJE//8QAGxABAAICAwAAAAAAAAAAAAAAAQACBBASEyH/2gAIAQEAAQUC5+Vu6x170CDP/8QAFBEBAAAAAAAAAAAAAAAAAAAAEP/aAAgBAwEBPwE//8QAFREBAQAAAAAAAAAAAAAAAAAAECH/2gAIAQIBAT8Bp//EABoQAAICAwAAAAAAAAAAAAAAAAAxARACESH/2gAIAQEABj8CnTO1ODYq/8QAGxABAAMAAwEAAAAAAAAAAAAAAQARIRAxQWH/2gAIAQEAAT8hegseRDkH43wZqjFstMTGf//aAAwDAQACAAMAAAAQ0P8A/8QAFhEBAQEAAAAAAAAAAAAAAAAAABEx/9oACAEDAQE/EMR//8QAFxEBAQEBAAAAAAAAAAAAAAAAAQARMf/aAAgBAgEBPxBHxhE2/8QAGhABAQEBAQEBAAAAAAAAAAAAAREAITFBUf/aAAgBAQABPxAijO9QS+3Rg588GtKapcVuodL+62Eft7cksO7/2Q=="},"images":{"fallback":{"src":"/static/19537fb214d67d6f2b800bdbc0d4be1c/39611/demo_1.jpg","srcSet":"/static/19537fb214d67d6f2b800bdbc0d4be1c/0f61a/demo_1.jpg 192w,\n/static/19537fb214d67d6f2b800bdbc0d4be1c/c83fc/demo_1.jpg 384w,\n/static/19537fb214d67d6f2b800bdbc0d4be1c/39611/demo_1.jpg 768w,\n/static/19537fb214d67d6f2b800bdbc0d4be1c/83638/demo_1.jpg 1536w","sizes":"(min-width: 768px) 768px, 100vw"},"sources":[]},"width":768,"height":512}}},"description":"This article will introduce the design style of the Gatsby blog"}},{"id":"bd110bc5-0e22-5814-a06f-167c49fdf239","timeToRead":3.875,"fields":{"slug":"/posts/another-simple-post"},"frontmatter":{"title":"Another simple post","date":"April 6th, 2022","categories":["post","example"],"hero":{"normal":{"gatsbyImageData":{"layout":"constrained","placeholder":{"fallback":"data:image/jpeg;base64,/9j/2wBDABALDA4MChAODQ4SERATGCgaGBYWGDEjJR0oOjM9PDkzODdASFxOQERXRTc4UG1RV19iZ2hnPk1xeXBkeFxlZ2P/2wBDARESEhgVGC8aGi9jQjhCY2NjY2NjY2NjY2NjY2NjY2NjY2NjY2NjY2NjY2NjY2NjY2NjY2NjY2NjY2NjY2NjY2P/wgARCAANABQDASIAAhEBAxEB/8QAFwABAQEBAAAAAAAAAAAAAAAABAADBf/EABUBAQEAAAAAAAAAAAAAAAAAAAAB/9oADAMBAAIQAxAAAAHplUextpH/xAAbEAACAQUAAAAAAAAAAAAAAAACAwABEBEhMv/aAAgBAQABBQItihYlTFuXz//EABQRAQAAAAAAAAAAAAAAAAAAABD/2gAIAQMBAT8BP//EABQRAQAAAAAAAAAAAAAAAAAAABD/2gAIAQIBAT8BP//EABsQAAEEAwAAAAAAAAAAAAAAAAEAECExAhFC/9oACAEBAAY/AiFIkWqbHXUFv//EABkQAQACAwAAAAAAAAAAAAAAAAEAERAhYf/aAAgBAQABPyEdAqJNjVaANGA3uBj/2gAMAwEAAgADAAAAEDsf/8QAFBEBAAAAAAAAAAAAAAAAAAAAEP/aAAgBAwEBPxA//8QAFBEBAAAAAAAAAAAAAAAAAAAAEP/aAAgBAgEBPxA//8QAHBABAAICAwEAAAAAAAAAAAAAAQARMUFhcYGR/9oACAEBAAE/EOeL6lNdMJemuSB0wNAEWNjHcbHyILgn/9k="},"images":{"fallback":{"src":"/static/284693fca7dee4d7dd6aab36167cca55/39611/demo_1.jpg","srcSet":"/static/284693fca7dee4d7dd6aab36167cca55/0f61a/demo_1.jpg 192w,\n/static/284693fca7dee4d7dd6aab36167cca55/c83fc/demo_1.jpg 384w,\n/static/284693fca7dee4d7dd6aab36167cca55/39611/demo_1.jpg 768w,\n/static/284693fca7dee4d7dd6aab36167cca55/83638/demo_1.jpg 1536w","sizes":"(min-width: 768px) 768px, 100vw"},"sources":[]},"width":768,"height":512}}},"description":"This is a post page with only simple paragraphs"}}]}},"pageContext":{"limit":6,"skip":0,"currentPage":1}},"staticQueryHashes":["176088207"],"slicesMap":{}}